Milestone report
…
===============================================================================

3. How many unique words do you need in a frequency sorted dictionary to cover 50% of all word instances in the language? 90%?

corpus_words <- left_join(IDCounts, TotalWords)

## Joining, by = "id"

corpus_words

## Source: local data frame [366,092 x 4]
## Groups: id [?]
## 
##         id   word     n   total
##      <chr>  <chr> <int>   <int>
## 1  Twitter   love 21235 2395966
## 2  Twitter    day 18335 2395966
## 3    Blogs   time 18280 2773941
## 4  Twitter     rt 18100 2395966
## 5  Twitter   time 15477 2395966
## 6  Twitter    lol 13996 2395966
## 7    Blogs people 11838 2773941
## 8     News   time 11531 3066575
## 9    Blogs    day 10446 2773941
## 10 Twitter people 10445 2395966
## # ... with 366,082 more rows
…
